{
    "/client/js/app.js": "/client/js/app.js?id=3479443a5607f6d334db",
    "/client/js/vendor.js": "/client/js/vendor.js?id=2ce162e761de14e63804",
    "/js/app.js": "/js/app.js?id=b8cf44d657068d2d9b04",
    "/css/app.css": "/css/app.css?id=4151cf6261b95f07227e",
    "/client/css/app.css": "/client/css/app.css?id=cd2e367b9d69521eaae0",
    "/client/js/manifest.js": "/client/js/manifest.js?id=7c0a19fb1a3afbe0a6cb"
}